{
  "board": "Custom 20th Anniversary",
  "brand": "Burton",
  "lengths": [151,154,158],
  "camber": "cam",
  "male": true,
  "symmetry": true,
  "terrain": [2,1],
  "price": 579.95,
  "flex": 5,
  "shape": "directional",
  "link": "http://www.burton.com/default/burton-custom-20th-anniversary-snowboard/W16-166651.html?cgid=mens-boards&srule=filterBoardTerrain&start=1"
}