{
  "board": "Custom",
  "brand": "Burton",
  "lengths": [148,151,154,156,158,160,163],
  "wide": [158,162,169],
  "camber": "cam",
  "male": true,
  "symmetry": true,
  "terrain": [2,1],
  "price": 579.95,
  "flex": 5,
  "shape": "directional",
  "link": "http://www.burton.com/default/burton-custom-20th-anniversary-snowboard/W16-166651.html?cgid=mens-boards&srule=filterBoardTerrain&start=1"
}