{
  "board": "ladies choice",
  "brand": "GNU",
  "lengths": [146,149,152,154],
  "camber": "cam/roc/cam",
  "male": false,
  "symmetry": false,
  "terrain": [2,1],
  "price": 559.95,
  "flex": 5,
  "shape": "twin",
  "link": "http://www.gnu.com/snowboards/ladies-choice/"
}