{
  "board": "Space Out",
  "brand": "GNU",
  "lengths": [153,157,161],
  "camber": "cam/roc/cam",
  "male": true,
  "symmetry": true,
  "terrain": [2,3],
  "price": 529.95,
  "flex": 6,
  "shape": "directional",
  "link": "http://www.gnu.com/snowboards/space-out/"
}