{
  "board": "Velvet",
  "brand": "GNU",
  "lengths": [139,143,147,150,153],
  "camber": "cam/roc/cam",
  "male": false,
  "symmetry": true,
  "terrain": [2,1],
  "price": 449.95,
  "flex": 5,
  "shape": "twin",
  "link": "http://www.gnu.com/snowboards/velvet-gnuru/"
}