{
  "board": "Nug",
  "brand": "Burton",
  "lengths": [142, 146, 150, 154],
  "camber": "cam/roc/cam",
  "male": true,
  "symmetry": true,
  "terrain": [2,1],
  "price": 449.95,
  "flex": 3,
  "shape": "twin",
  "link": "http://www.burton.com/default/burton-nug-snowboard/W16-124031.html?cgid=mens-boards&start=11"
}