{
  "board": "Kelly Air",
  "brand": "Burton",
  "lengths": [155,161],
  "camber": "cam",
  "male": true,
  "symmetry": true,
  "terrain": [2,1],
  "price": 599.95,
  "flex": 6,
  "shape": "directional",
  "link": "http://www.burton.com/default/burton-kelly-air-snowboard/L16-170121.html?cgid=mens-boards&start=17"
}