{
  "board": "Happy Hour",
  "brand": "K2",
  "lengths": [151,154,157,159],
  "camber": "cam/flat/cam",
  "male": true,
  "symmetry": true,
  "terrain": [1],
  "price": 499.95,
  "flex": 3,
  "shape": "twin",
  "link": "http://en-us.k2snowboarding.com/snowboards/k2-happy-hour"
}