{
  "board": "Family Tree Fish Split*",
  "brand": "Burton",
  "lengths": [156],
  "camber": "flat/roc",
  "male": true,
  "symmetry": true,
  "terrain": [3],
  "price": 799.95,
  "flex": 4,
  "shape": "directional",
  "link": "http://www.burton.com/default/burton-family-tree-fish-split-snowboard/W16-150921.html?cgid=mens-boards&start=28"
}