{
  "board": "Custom X",
  "brand": "Burton",
  "lengths": [
    152,
    156,
    158,
    160,
    164
  ],
  "wide": [
    159,
    162,
    164
  ],
  "camber": "cam",
  "male": true,
  "symmetry": true,
  "terrain": [
    2,
    3
  ],
  "price": 699.95,
  "flex": 8,
  "shape": "directional",
  "link": "http://www.burton.com/default/burton-custom-x-snowboard/W16-106891.html?cgid=mens-boards&srule=filterBoardTerrain&start=4"
}