{
  "board": "Joy Driver",
  "brand": "K2",
  "lengths": [156,159,163,165],
  "camber": "directional cam",
  "male": true,
  "symmetry": true,
  "terrain": [3,2],
  "price": 599.95,
  "flex": 7,
  "shape": "directional",
  "link": "http://en-us.k2snowboarding.com/snowboards/joy-driver"
}