{
  "board": "Northern Lite Splitboard*",
  "brand": "K2",
  "lengths": [152],
  "camber": "flat",
  "male": false,
  "symmetry": true,
  "terrain": [3],
  "price": 899.95,
  "flex": 7,
  "shape": "directional",
  "link": "http://en-us.k2snowboarding.com/backside-tools/northern-lite-kit"
}