{
  "board": "Name Dropper",
  "brand": "Burton",
  "lengths": [148,151,155,158],
  "camber": "roc/flat/roc",
  "male": true,
  "symmetry": true,
  "terrain": [1],
  "price": 449.95,
  "flex": 2,
  "shape": "twin",
  "link": "http://www.burton.com/default/burton-name-dropper-snowboard/W16-132211.html?cgid=mens-boards&start=21"
}