{
  "board": "Beast Splitboard*",
  "brand": "GNU",
  "lengths": [158,161],
  "camber": "cam/roc/cam",
  "male": true,
  "symmetry": true,
  "terrain": [2,3],
  "price": 849.95,
  "flex": 7,
  "shape": "directional",
  "link": "http://www.gnu.com/snowboards/beast-splitboard/"
}